Análisis de elecciones
…
Selección de datos

Nos quedaremos con las columnas que nos interesan.

datos_elecciones <- datos_elecciones |> 
  mutate(across(where(is.logical), as.numeric))

Toma todas las columnas lógicas de datos_elecciones y las convierte en columnas numéricas, de manera que los valores TRUE se convierten en 1 y los valores FALSE en 0.

Selección de datos

datos_elecciones

# A tibble: 48,737 × 471
   tipo_eleccion  anno mes   vuelta codigo_ccaa codigo_provincia
   <chr>         <dbl> <chr>  <dbl> <chr>       <chr>           
 1 02             2008 03         1 14          01              
 2 02             2008 03         1 14          01              
 3 02             2008 03         1 14          01              
 4 02             2008 03         1 14          01              
 5 02             2008 03         1 14          01              
 6 02             2008 03         1 14          01              
 7 02             2008 03         1 14          01              
 8 02             2008 03         1 14          01              
 9 02             2008 03         1 14          01              
10 02             2008 03         1 14          01              
# ℹ 48,727 more rows
# ℹ 465 more variables: codigo_municipio <chr>,
#   codigo_distrito_electoral <dbl>, numero_mesas <dbl>, censo <dbl>,
#   participacion_1 <dbl>, participacion_2 <dbl>, votos_blancos <dbl>,
#   votos_nulos <dbl>, votos_candidaturas <dbl>, `BERDEAK-LOS VERDES` <dbl>,
#   ARALAR <dbl>, `PARTIDO OBRERO SOCIALISTA INTERNACIONALISTA` <dbl>,
#   `ALTERNATIVA MOTOR Y DEPORTES` <dbl>, `PARTIDO HUMANISTA` <dbl>, …
…
Contar el número de filas en un conjunto de datos

numero_filas <- nrow(encuestas_tidy)
numero_filas

[1] 14530

Crear una secuencia de años para filtrado

anos_interes <- seq(from = 2008, to = 2019, by = 1)
datos_ejemplo <- datos_tidy |>
  filter(anno %in% anos_interes)
datos_ejemplo

# A tibble: 396,735 × 17
   fecha       anno mes   codigo_ccaa codigo_provincia codigo_municipio
   <date>     <dbl> <chr> <chr>       <chr>            <chr>           
 1 2008-03-01  2008 03    14          01               001             
 2 2008-03-01  2008 03    14          01               001             
 3 2008-03-01  2008 03    14          01               001             
 4 2008-03-01  2008 03    14          01               001             
 5 2008-03-01  2008 03    14          01               001             
 6 2008-03-01  2008 03    14          01               001             
 7 2008-03-01  2008 03    14          01               001             
 8 2008-03-01  2008 03    14          01               001             
 9 2008-03-01  2008 03    14          01               001             
10 2008-03-01  2008 03    14          01               001             
# ℹ 396,725 more rows
# ℹ 11 more variables: numero_mesas <dbl>, censo <dbl>, participacion_1 <dbl>,
#   participacion_2 <dbl>, votos_blancos <dbl>, votos_nulos <dbl>,
#   votos_candidaturas <dbl>, partidos <chr>, votos <dbl>, cod_m <glue>,
#   siglas <chr>

Calcular el promedio de votos

promedio_votos <- mean(datos_tidy$votos)
promedio_votos

[1] 371.4748

Combinar datos_elecciones y cod_mun

datos_combinados <- left_join(datos_tidy, cod_mun, by = c("codigo_municipio" = "cod_mun"))
datos_combinados

# A tibble: 396,735 × 18
   fecha       anno mes   codigo_ccaa codigo_provincia codigo_municipio
   <date>     <dbl> <chr> <chr>       <chr>            <chr>           
 1 2008-03-01  2008 03    14          01               001             
 2 2008-03-01  2008 03    14          01               001             
 3 2008-03-01  2008 03    14          01               001             
 4 2008-03-01  2008 03    14          01               001             
 5 2008-03-01  2008 03    14          01               001             
 6 2008-03-01  2008 03    14          01               001             
 7 2008-03-01  2008 03    14          01               001             
 8 2008-03-01  2008 03    14          01               001             
 9 2008-03-01  2008 03    14          01               001             
10 2008-03-01  2008 03    14          01               001             
# ℹ 396,725 more rows
# ℹ 12 more variables: numero_mesas <dbl>, censo <dbl>, participacion_1 <dbl>,
#   participacion_2 <dbl>, votos_blancos <dbl>, votos_nulos <dbl>,
#   votos_candidaturas <dbl>, partidos <chr>, votos <dbl>, cod_m <glue>,
#   siglas <chr>, municipio <chr>
…
sumar_votos_partidos <- participacion_total |> 
  summarise(total_censo = sum(censo, na.rm = TRUE),
            total_participacion = sum(particip_total, na.rm = TRUE),
            tasa_participacion = (total_participacion/total_censo)*100,
            .by = cod_m) |> 
  arrange(desc(tasa_participacion)) |> 
  left_join(cod_mun, by = c("cod_m" = "cod_mun"))

max_participacion <- sumar_votos_partidos |>
  slice_max(tasa_participacion, n = 1, with_ties = FALSE)

min_participacion <- sumar_votos_partidos |>
  slice_min(tasa_participacion, n = 1, with_ties = FALSE)

# A tibble: 48,737 × 19
   fecha       anno mes   codigo_ccaa codigo_provincia codigo_municipio
   <date>     <dbl> <chr> <chr>       <chr>            <chr>           
 1 2008-03-01  2008 03    14          01               001             
 2 2008-03-01  2008 03    14          01               002             
 3 2008-03-01  2008 03    14          01               003             
 4 2008-03-01  2008 03    14          01               004             
 5 2008-03-01  2008 03    14          01               006             
 6 2008-03-01  2008 03    14          01               008             
 7 2008-03-01  2008 03    14          01               009             
 8 2008-03-01  2008 03    14          01               010             
 9 2008-03-01  2008 03    14          01               011             
10 2008-03-01  2008 03    14          01               013             
# ℹ 48,727 more rows
# ℹ 13 more variables: numero_mesas <dbl>, censo <dbl>, participacion_1 <dbl>,
#   participacion_2 <dbl>, particip_total <dbl>, votos_blancos <dbl>,
#   votos_nulos <dbl>, votos_candidaturas <dbl>, partidos <chr>, votos <dbl>,
#   cod_m <glue>, siglas <chr>, tipo_partido <chr>
…
Calibración del Error de las Encuestas (II)

# Combinamos resultados reales con las encuestas
comparacion_encuestas <- inner_join(votos_partidos, encuestas_gen, by = c("fecha", "siglas")) |>
  mutate(diferencia = abs(porcentaje - percentage))

# Seleccionamos columnas relevantes para el análisis
comparacion_encuestas_seleccionadas <- comparacion_encuestas |>
  select(fecha, siglas, porcentaje, percentage, diferencia, pollster)

comparacion_encuestas_seleccionadas

# A tibble: 7,763 × 6
   fecha      siglas porcentaje percentage diferencia pollster               
   <date>     <chr>       <dbl>      <dbl>      <dbl> <chr>                  
 1 2008-03-01 PP           39.9       39        0.861 GESOP                  
 2 2008-03-01 PP           39.9       38.6      1.26  GESOP                  
 3 2008-03-01 PP           39.9       39        0.861 GESOP                  
 4 2008-03-01 PP           39.9       38        1.86  DEMOMÉTRICA            
 5 2008-03-01 PP           39.9       38.5      1.36  IPSOS                  
 6 2008-03-01 PP           39.9       38        1.86  DEMOMÉTRICA            
 7 2008-03-01 PP           39.9       39.3      0.561 SIGMA DOS              
 8 2008-03-01 PP           39.9       39.5      0.361 OBRADOIRO DE SOCIOLOXÍA
 9 2008-03-01 PP           39.9       38.2      1.66  DEMOMÉTRICA            
10 2008-03-01 PP           39.9       39.5      0.361 NOXA                   
# ℹ 7,753 more rows
…
